<svg width="10" height="11" viewBox="0 0 10 11" fill="none" xmlns="http://www.w3.org/2000/svg">
<rect y="9" width="10" height="2" rx="1" fill="#D6C84A"/>
<rect y="6" width="10" height="2" rx="1" fill="#D6C84A"/>
<rect y="3" width="10" height="2" rx="1" fill="#D6C84A"/>
<rect width="10" height="2" rx="1" fill="#D6C84A"/>
</svg>
