<svg width="16" height="16" viewBox="0 0 16 16" fill="none" xmlns="http://www.w3.org/2000/svg">
<path d="M13.3333 2H2.66659C1.92659 2 1.33325 2.59333 1.33325 3.33333V12.6667C1.33325 13.4067 1.92659 14 2.66659 14H13.3333C14.0733 14 14.6666 13.4067 14.6666 12.6667V3.33333C14.6666 2.59333 14.0733 2 13.3333 2ZM3.33325 4.66667H6.66659V8.66667H3.33325V4.66667ZM12.6666 11.3333H3.33325V10H12.6666V11.3333ZM12.6666 8.66667H7.99992V7.33333H12.6666V8.66667ZM12.6666 6H7.99992V4.66667H12.6666V6Z" fill="white"/>
</svg>
