<svg width="16" height="16" viewBox="0 0 16 16" fill="none" xmlns="http://www.w3.org/2000/svg">
<path fill-rule="evenodd" clip-rule="evenodd" d="M11.8334 12.616C13.1572 11.5154 14 9.85612 14 8C14 4.68629 11.3137 2 8 2C4.68629 2 2 4.68629 2 8C2 9.85612 2.84283 11.5154 4.16665 12.616C4.65946 11.103 6.18921 10 8 10C9.81079 10 11.3405 11.103 11.8334 12.616Z" fill="white"/>
<path fill-rule="evenodd" clip-rule="evenodd" d="M8.00008 0.666656C3.95008 0.666656 0.666748 3.94999 0.666748 7.99999C0.666748 12.05 3.95008 15.3333 8.00008 15.3333C12.0501 15.3333 15.3334 12.05 15.3334 7.99999C15.3334 3.94999 12.0501 0.666656 8.00008 0.666656ZM2.00008 7.99999C2.00008 9.39332 2.47541 10.676 3.27208 11.6947C3.83157 10.9599 4.55335 10.3645 5.38104 9.95486C6.20872 9.54524 7.11991 9.33252 8.04341 9.33332C8.95497 9.33246 9.85469 9.53967 10.674 9.93918C11.4934 10.3387 12.2107 10.9199 12.7714 11.6387C13.349 10.8811 13.738 9.9968 13.906 9.05905C14.074 8.1213 14.0164 7.15701 13.7377 6.24598C13.4591 5.33495 12.9676 4.50335 12.3037 3.82001C11.6399 3.13667 10.8229 2.62123 9.92034 2.31633C9.01776 2.01143 8.05555 1.92584 7.11332 2.06664C6.1711 2.20744 5.27594 2.57058 4.50193 3.12603C3.72791 3.68147 3.09729 4.41324 2.66223 5.26079C2.22718 6.10834 2.0002 7.0473 2.00008 7.99999ZM8.00008 14C6.62271 14.0021 5.28693 13.5282 4.21875 12.6587C4.6487 12.0431 5.22097 11.5406 5.88688 11.1938C6.55278 10.847 7.29261 10.6661 8.04341 10.6667C8.78485 10.6661 9.51574 10.8424 10.1754 11.1809C10.835 11.5195 11.4043 12.0106 11.8361 12.6133C10.7596 13.5111 9.4018 14.002 8.00008 14Z" fill="white"/>
<path fill-rule="evenodd" clip-rule="evenodd" d="M10.6666 6.66667C10.6666 7.37391 10.3856 8.05219 9.88554 8.55228C9.38544 9.05238 8.70716 9.33333 7.99992 9.33333C7.29267 9.33333 6.6144 9.05238 6.1143 8.55228C5.6142 8.05219 5.33325 7.37391 5.33325 6.66667C5.33325 5.95942 5.6142 5.28115 6.1143 4.78105C6.6144 4.28095 7.29267 4 7.99992 4C8.70716 4 9.38544 4.28095 9.88554 4.78105C10.3856 5.28115 10.6666 5.95942 10.6666 6.66667Z" fill="#8E3138"/>
</svg>
