<svg width="13" height="12" viewBox="0 0 13 12" fill="none" xmlns="http://www.w3.org/2000/svg">
<rect width="13" height="2" rx="1" fill="white"/>
<rect y="5" width="13" height="2" rx="1" fill="white"/>
<rect y="10" width="13" height="2" rx="1" fill="white"/>
</svg>
